506 8712 262
4274 8936 262
9311 18242 279
3204 12123 268
2831 7033 262
3922 11895 268
3147 5828 238
9534 17104 276
9244 12124 268
1425 11244 268
9686 15464 276
7564 15042 276
8217 8932 234
2054 2411 183
8848 15582 276
8154 16259 276
3627 10604 262
3858 10964 262
4233 7980 262
2249 5986 238
2396 8118 262
7764 8913 252
1322 4463 238
3933 7281 262
9580 17696 279
3674 9395 262
5427 9230 262
5251 13343 276
8981 18744 279
233 2154 182
1031 2255 183
2570 3748 238
4156 8074 262
1327 6066 238
5009 6491 262
4520 6171 262
6109 14982 276
6676 16437 276
2951 10834 262
2490 4350 238
1803 10395 262
5363 12512 268
9621 14637 276
8589 18556 279
5926 7327 262
9040 15053 276
7001 13163 268
3104 10295 262
3555 5349 238
9944 13814 276
2957 9833 262
1372 11215 268
1659 5341 238
9275 18904 279
755 2717 209
3270 5783 238
708 8800 262
8047 15570 276
3188 4386 238
6155 9632 262
8657 16845 276
1635 2693 209
3980 9038 262
1783 2912 209
2341 7239 262
9388 13605 276
4609 12494 268
5270 6237 262
6484 11800 268
4598 14530 276
712 7464 262
8061 8467 234
3242 5605 238
449 8987 262
9971 15377 276
4186 10231 262
8274 14784 276
3962 5527 215
314 5074 238
441 6019 238
2752 3403 217
4338 10052 262
4540 13207 268
9235 16953 276
3374 6967 262
3484 10456 262
2917 10813 262
9390 13134 268
5599 6075 218
6178 8674 257
1018 8538 262
1887 9779 262
5489 10870 262
4819 8522 262
5718 14076 276
3075 8957 262
5662 9481 262
5693 9941 262
6916 12004 268
6422 16251 276
5978 13211 268
435 1132 179
5388 12766 268
1256 10043 262
4238 10821 262
6138 10916 262
566 1030 179
8912 13227 268
9180 12287 268
1061 3407 217
3842 7158 262
7173 16774 276
2162 6024 238
6602 9762 260
5055 11026 268
8330 12756 268
817 9590 262
6065 6824 262
3879 10331 262
8464 18299 279
1577 6978 262
9646 16428 276
9430 19150 279
2301 7259 262
2250 7281 262
9549 10246 242
6451 8962 257
246 3447 217
8334 12906 268
9463 9641 198
4683 12900 268
1575 3088 217
940 1817 182
3497 4665 238
5408 10167 262
1517 9216 262
1543 9372 262
9823 16675 276
1085 5201 238
1013 4790 238
4801 14589 276
4173 12505 268
6637 8516 257
6091 6435 262
6724 10024 260
3602 13391 276
1982 3140 217
7100 7447 239
9664 12684 268
7394 7447 239
