1 1 1
1 10 20
100 200 125
201 210 89
900 1000 174
1 999999 525
1 500000 449
500000 1 449
500000 999999 525
100 1000 179
1000 10000 262
10000 100000 351
10000 999999 525
500 100 179
997823 997823 396
987897 97822 525
1623 324797 443
999999 1 525
23432 95747 351
12314 479374 449
3482 797894 509
324324 79873 443
12312 104809 351
313342 1233 443
1 2 2
435687 23 449
32486 86786 351
3423 59348 340
677 342 145
123 5493 238
342234 3454 443
234 809 171
435 42890 324
243 4239 238
243 32480 308
13123 42234 324
52432 34594 324
999999 4342 525
4234 543579 470
354 3455 217
1321 6564 262
234 8092 262
234 8092 262
4132 80284 351
234234 4197 443
123 48230 324
5345 5375 192
4353 42379 324
2343 374 183
80098 4342 351
13 53498 340
1327 95789 351
243423 74923 443
132 4048 238
465 340 134
4243 9908 262
459 937987 525
797 79 171
2497 3795 238
23794 7987 282
2439 749789 509
243 7934 262
4797 72397 340
7798 634 262
1092 534798 470
3279 37459 324
79 3479 217
234 7984 262
3497 72439 340
234987 349 443
57 7243 262
3527 4397 238
93274 37598 351
23468 59 279
42386 34987 324
264 648 144
23648 34789 311
2346 648 217
243 798 171
3058 8234 262
53 8043 262
65089 537 340
234 79 128
435 1089 179
3497 42937 324
192738 784 383
13 7 20
99427 17329 351
9753 1739 262
908 324 179
987 654 179
3210 987 217
324 549 144
7359 7239 195
12345 6789 268
54321 987654 525
439757 237493 449
423748 243792 387
34597 274398 443
9978 7294 262
123 798 171

